[gd_resource type="SphereMesh" load_steps=2 format=2]

[sub_resource type="SpatialMaterial" id=1]

render_priority = 0
flags_transparent = false
flags_unshaded = false
flags_vertex_lighting = false
flags_no_depth_test = false
flags_use_point_size = false
flags_world_triplanar = false
flags_fixed_size = false
flags_albedo_tex_force_srgb = false
vertex_color_use_as_albedo = false
vertex_color_is_srgb = false
params_diffuse_mode = 0
params_specular_mode = 2
params_blend_mode = 0
params_cull_mode = 0
params_depth_draw_mode = 1
params_line_width = 1.0
params_point_size = 1.0
params_billboard_mode = 0
params_grow = false
params_use_alpha_scissor = false
albedo_color = Color( 1, 1, 1, 1 )
metallic = 0.82
metallic_specular = 1.0
metallic_texture_channel = 0
roughness = 0.03
roughness_texture_channel = 0
emission_enabled = false
normal_enabled = false
rim_enabled = false
clearcoat_enabled = false
anisotropy_enabled = true
anisotropy = 0.0
ao_enabled = false
depth_enabled = false
subsurf_scatter_enabled = false
transmission_enabled = false
refraction_enabled = false
detail_enabled = true
detail_blend_mode = 0
detail_uv_layer = 0
uv1_scale = Vector3( 1, 1, 1 )
uv1_offset = Vector3( 0, 0, 0 )
uv1_triplanar = false
uv1_triplanar_sharpness = 1.0
uv2_scale = Vector3( 1, 1, 1 )
uv2_offset = Vector3( 0, 0, 0 )
uv2_triplanar = false
uv2_triplanar_sharpness = 1.0
proximity_fade_enable = false
distance_fade_enable = false
_sections_unfolded = [ "Ambient Occlusion", "Depth", "Metallic", "Roughness", "Subsurf Scatter", "Transmission" ]

[resource]

material = SubResource( 1 )
custom_aabb = AABB( 0, 0, 0, 0, 0, 0 )
radius = 0.25
height = 0.5
radial_segments = 64
rings = 32
is_hemisphere = false

